{
	"configuration": {
		"server_address": "127.0.0.1",
		"white_port": 5800,
		"black_port": 5801,
		"team_name": "\"HillClimbers\"\n",
		"env_type": "Competition",
		"player_type": "MonteCarloPlayer",
		"time_limit": 50,
		"white_simulations": 40,
		"black_simulations": 40,
		"white_policy": 0.5,
		"black_policy": 0.5
	},
	"report": [
		{
			"choosen_move": {
				"to": "F4",
				"from": "F5"
			},
			"choosen_move_ratio": 0.30339083878643663,
			"num_childrens_expanded": 56,
			"tot_childrens": 56,
			"choice_ratio_var": 0.00033554080147068404,
			"choice_ratio_avg": 0.27224225997068835,
			"choice_ratio_max": 0.3010359536867764,
			"choice_ratio_min": 0.21352313167259787,
			"max_depth_reached": 2
		},
		{
			"choosen_move": {
				"to": "F5",
				"from": "E5"
			},
			"choosen_move_ratio": 0.9923701010261985,
			"num_childrens_expanded": 51,
			"tot_childrens": 51,
			"choice_ratio_var": 0.001285580838702724,
			"choice_ratio_avg": 0.2555360073753597,
			"choice_ratio_max": 0.3348751156336725,
			"choice_ratio_min": 0.17355371900826447,
			"max_depth_reached": 6
		},
		{
			"choosen_move": {
				"to": "F7",
				"from": "F5"
			},
			"choosen_move_ratio": 0.9915440228769113,
			"num_childrens_expanded": 48,
			"tot_childrens": 48,
			"choice_ratio_var": 0.011483531701877462,
			"choice_ratio_avg": 0.41706430224257757,
			"choice_ratio_max": 0.954626842558628,
			"choice_ratio_min": 0.1951219512195122,
			"max_depth_reached": 4
		},
		{
			"choosen_move": {
				"to": "I7",
				"from": "F7"
			},
			"choosen_move_ratio": 0.9999388058916279,
			"num_childrens_expanded": 45,
			"tot_childrens": 45,
			"choice_ratio_var": 0.015358832982664817,
			"choice_ratio_avg": 0.9390397416431884,
			"choice_ratio_max": 0.9998203761635525,
			"choice_ratio_min": 0.3902439024390244,
			"max_depth_reached": 4
		}
	],
	"game_result": {
		"Wins": "Me"
	}
}
