Trained with all_datasets/dataset_eat_2/black_50_simulations.csv

[train] epoch    1, loss 0.0360 |          119900/         120000 samples | => test set loss: 0.0355
[train] epoch    2, loss 0.0279 |          119900/         120000 samples | => test set loss: 0.0303
[train] epoch    3, loss 0.0235 |          119900/         120000 samples | => test set loss: 0.0267
[train] epoch    4, loss 0.0198 |          119900/         120000 samples | => test set loss: 0.0239
[train] epoch    5, loss 0.0104 |          119900/         120000 samples | => test set loss: 0.0225
[train] epoch    6, loss 0.0169 |          119900/         120000 samples | => test set loss: 0.0211
[train] epoch    7, loss 0.0124 |          119900/         120000 samples | => test set loss: 0.0216
[train] epoch    8, loss 0.0124 |          119900/         120000 samples | => test set loss: 0.0191
[train] epoch    9, loss 0.0121 |          119900/         120000 samples | => test set loss: 0.0184
[train] epoch   10, loss 0.0103 |          119900/         120000 samples | => test set loss: 0.0181
[train] epoch   11, loss 0.0102 |          119900/         120000 samples | => test set loss: 0.0173
[train] epoch   12, loss 0.0117 |          119900/         120000 samples | => test set loss: 0.0162
[train] epoch   13, loss 0.0110 |          119900/         120000 samples | => test set loss: 0.0154
[train] epoch   14, loss 0.0088 |          119900/         120000 samples | => test set loss: 0.0152
[train] epoch   15, loss 0.0087 |          119900/         120000 samples | => test set loss: 0.0150
[train] epoch   16, loss 0.0129 |          119900/         120000 samples | => test set loss: 0.0140
[train] epoch   17, loss 0.0105 |          119900/         120000 samples | => test set loss: 0.0143
[train] epoch   18, loss 0.0100 |          119900/         120000 samples | => test set loss: 0.0140
[train] epoch   19, loss 0.0063 |          119900/         120000 samples | => test set loss: 0.0132
[train] epoch   20, loss 0.0078 |          119900/         120000 samples | => test set loss: 0.0131
[train] epoch   21, loss 0.0060 |          119900/         120000 samples | => test set loss: 0.0126
[train] epoch   22, loss 0.0107 |          119900/         120000 samples | => test set loss: 0.0128
[train] epoch   23, loss 0.0057 |          119900/         120000 samples | => test set loss: 0.0124
[train] epoch   24, loss 0.0066 |          119900/         120000 samples | => test set loss: 0.0126
[train] epoch   25, loss 0.0061 |          119900/         120000 samples | => test set loss: 0.0121
[train] epoch   26, loss 0.0054 |          119900/         120000 samples | => test set loss: 0.0124
[train] epoch   27, loss 0.0052 |          119900/         120000 samples | => test set loss: 0.0120
[train] epoch   28, loss 0.0050 |          119900/         120000 samples | => test set loss: 0.0120
[train] epoch   29, loss 0.0081 |          119900/         120000 samples | => test set loss: 0.0119
[train] epoch   30, loss 0.0056 |          119900/         120000 samples | => test set loss: 0.0117
[train] epoch   31, loss 0.0034 |          119900/         120000 samples | => test set loss: 0.0114
[train] epoch   32, loss 0.0060 |          119900/         120000 samples | => test set loss: 0.0115
[train] epoch   33, loss 0.0040 |          119900/         120000 samples | => test set loss: 0.0116
[train] epoch   34, loss 0.0052 |          119900/         120000 samples | => test set loss: 0.0123
[train] epoch   35, loss 0.0038 |          119900/         120000 samples | => test set loss: 0.0118
[train] epoch   36, loss 0.0034 |          119900/         120000 samples | => test set loss: 0.0113
[train] epoch   37, loss 0.0044 |          119900/         120000 samples | => test set loss: 0.0116
[train] epoch   38, loss 0.0047 |          119900/         120000 samples | => test set loss: 0.0115
[train] epoch   39, loss 0.0038 |          119900/         120000 samples | => test set loss: 0.0110
[train] epoch   40, loss 0.0048 |          119900/         120000 samples | => test set loss: 0.0115
[train] epoch   41, loss 0.0050 |          119900/         120000 samples | => test set loss: 0.0113
[train] epoch   42, loss 0.0038 |          119900/         120000 samples | => test set loss: 0.0113
[train] epoch   43, loss 0.0050 |          119900/         120000 samples | => test set loss: 0.0113
[train] epoch   44, loss 0.0041 |          119900/         120000 samples | => test set loss: 0.0127
[train] epoch   45, loss 0.0034 |          119900/         120000 samples | => test set loss: 0.0114
[train] epoch   46, loss 0.0033 |          119900/         120000 samples | => test set loss: 0.0110
[train] epoch   47, loss 0.0030 |          119900/         120000 samples | => test set loss: 0.0111
[train] epoch   48, loss 0.0041 |          119900/         120000 samples | => test set loss: 0.0117
[train] epoch   49, loss 0.0041 |          119900/         120000 samples | => test set loss: 0.0114
[train] epoch   50, loss 0.0039 |          119900/         120000 samples | => test set loss: 0.0113
[train] epoch   51, loss 0.0025 |          119900/         120000 samples | => test set loss: 0.0110
[train] epoch   52, loss 0.0065 |          119900/         120000 samples | => test set loss: 0.0128
[train] epoch   53, loss 0.0035 |          119900/         120000 samples | => test set loss: 0.0113
[train] epoch   54, loss 0.0053 |          119900/         120000 samples | => test set loss: 0.0109
[train] epoch   55, loss 0.0037 |          119900/         120000 samples | => test set loss: 0.0110
[train] epoch   56, loss 0.0039 |          119900/         120000 samples | => test set loss: 0.0117
[train] epoch   57, loss 0.0024 |          119900/         120000 samples | => test set loss: 0.0114
[train] epoch   58, loss 0.0034 |          119900/         120000 samples | => test set loss: 0.0114
[train] epoch   59, loss 0.0034 |          119900/         120000 samples | => test set loss: 0.0112
[train] epoch   60, loss 0.0031 |          119900/         120000 samples | => test set loss: 0.0114
[train] epoch   61, loss 0.0038 |          119900/         120000 samples | => test set loss: 0.0119
[train] epoch   62, loss 0.0041 |          119900/         120000 samples | => test set loss: 0.0113
[train] epoch   63, loss 0.0034 |          119900/         120000 samples | => test set loss: 0.0114
[train] epoch   64, loss 0.0037 |          119900/         120000 samples | => test set loss: 0.0117
[train] epoch   65, loss 0.0030 |          119900/         120000 samples | => test set loss: 0.0116
[train] epoch   66, loss 0.0039 |          119900/         120000 samples | => test set loss: 0.0118
[train] epoch   67, loss 0.0038 |          119900/         120000 samples | => test set loss: 0.0114
[train] epoch   68, loss 0.0031 |          119900/         120000 samples | => test set loss: 0.0115
[train] epoch   69, loss 0.0029 |          119900/         120000 samples | => test set loss: 0.0111
[train] epoch   70, loss 0.0032 |          119900/         120000 samples | => test set loss: 0.0115
